<?xml version="1.0" encoding="UTF-8"?>
<!-- Generator: Adobe Illustrator 24.2.0, SVG Export Plug-In . SVG Version: 6.00 Build 0)  -->
<svg version="1.1" id="Ebene_1" xmlns="http://www.w3.org/2000/svg" xmlns:xlink="http://www.w3.org/1999/xlink" x="0px" y="0px" viewBox="0 0 103 98.9" style="enable-background:new 0 0 103 98.9;" xml:space="preserve" ml-update="aware">
<style type="text/css">
	.st0{fill:url(#SVGID_1_);}
	.st1{fill:#27348B;}
</style>
<linearGradient id="SVGID_1_" gradientUnits="userSpaceOnUse" x1="-4.7625" y1="75.8335" x2="80.6897" y2="26.5065" gradientTransform="matrix(1 0 0 -1 0 100.7562)">
	<stop offset="0" style="stop-color:#1c15"/>
	<stop offset="1" style="stop-color:#1c1"/>
</linearGradient>
<path class="st0" d="M91.8,21.5c13,4,15,14.2,4.3,22.7L33,94.5c-10.6,8.5-20.6,4.3-22-9.2L3.7,18.4C2.2,4.9,11.7-2.9,24.7,1  L91.8,21.5z"/>
<path class="st1" d="M0.6,23.8c0-0.1,0.1-0.1,0.1,0l5.1,5.8l5-5.8c0.1-0.1,0.1-0.1,0.1,0l0.6,10.8H8.9L8.6,30L6,33.1  c0,0-0.1,0-0.1,0L3,30l-0.2,4.6H0L0.6,23.8z"/>
<path class="st1" d="M14.1,23.9h7.5v2.4h-4.6v2.5h3.9v2.3h-3.9v1.1h4.8v2.4h-7.7V23.9z"/>
<path class="st1" d="M24.3,23.9h4.1c3-0.1,5.4,2.2,5.6,5.1c0.1,3-2.2,5.4-5.1,5.6c-0.2,0-0.3,0-0.5,0h-4.1V23.9z M28.1,32.1  c1.5,0.1,2.7-1.1,2.8-2.5c0-0.1,0-0.3,0-0.4c0.1-1.5-0.9-2.8-2.4-2.9c-0.1,0-0.3,0-0.4,0h-1v5.9L28.1,32.1z"/>
<path class="st1" d="M36.3,23.9h2.9v10.7h-2.9V23.9z"/>
<path class="st1" d="M42.2,23.9h7.5v2.4H45v2.5h3.9v2.3H45v1.1h4.9v2.4h-7.7V23.9z"/>
<path class="st1" d="M55.1,29.3v5.3h-2.7V23.8c0-0.1,0-0.2,0.2,0l6.8,5.5v-5.4h2.7v10.9c0,0.1,0,0.2-0.2,0L55.1,29.3z"/>
<path class="st1" d="M6.4,41.4h3.1L6,46l4,6.1H6.6L4,48.2c0,0-0.6,0.7-0.9,1.1v2.8H0.3V41.4h2.9v4.4L6.4,41.4z"/>
<path class="st1" d="M12.1,41.4H15v8.3h4.5v2.4h-7.4L12.1,41.4z"/>
<path class="st1" d="M23.9,52.1h-2.8l5.2-10.9c0-0.1,0.1-0.1,0.2,0l5.2,10.9h-3l-0.4-0.9h-4L23.9,52.1z M26.3,46.5L25.2,49h2.2  L26.3,46.5z"/>
<path class="st1" d="M32.9,50.2l2.1-1.6c0.5,0.7,1.3,1.2,2.2,1.2c0.8,0,1.3-0.2,1.3-0.8s-0.3-0.7-1-0.9l-1.3-0.4  c-1.5-0.5-2.7-1.5-2.7-3.2c0-2.1,1.8-3.2,3.7-3.2c1.3-0.1,2.7,0.4,3.5,1.4l-1.6,1.7c-0.4-0.5-1.1-0.8-1.8-0.8c-0.7,0-1,0.3-1,0.7  s0.2,0.6,0.8,0.8l1.4,0.5c2.1,0.7,2.8,1.7,2.8,3.3c0,2-1.2,3.4-4,3.4C35.6,52.3,34,51.6,32.9,50.2z"/>
<path class="st1" d="M43,50.2l2.1-1.6c0.5,0.7,1.3,1.2,2.2,1.2c0.8,0,1.4-0.2,1.4-0.8s-0.3-0.7-1.1-0.9l-1.3-0.4  c-1.6-0.5-2.7-1.5-2.7-3.2c0-2.1,1.7-3.2,3.6-3.2c1.3-0.1,2.7,0.4,3.6,1.4l-1.6,1.7c-0.4-0.5-1.1-0.8-1.8-0.8c-0.7,0-1,0.3-1,0.7  s0.2,0.6,0.8,0.8l1.4,0.5c2.1,0.7,2.9,1.7,2.9,3.2c0,2-1.2,3.4-4,3.4C45.7,52.4,44,51.6,43,50.2z"/>
<path class="st1" d="M53.9,41.4h7.5v2.4h-4.7v2.5h3.9v2.3h-3.9v1.1h4.8v2.4h-7.7V41.4z"/>
<path class="st1" d="M66.8,46.7v5.3h-2.7V41.2c0-0.1,0-0.2,0.2,0l6.7,5.5v-5.4h2.7v10.8c0,0.1,0,0.2-0.2,0L66.8,46.7z"/>
<path class="st1" d="M0.3,58.9h7.3v2.4H3.1v2.5H7v2.4H3.1v3.4H0.3V58.9z"/>
<path class="st1" d="M11.1,69.5H8.3l5.2-10.9c0-0.1,0.1-0.1,0.2,0l5.2,10.9h-3l-0.4-0.9h-4L11.1,69.5z M13.4,64l-1.1,2.5h2.2  L13.4,64z"/>
<path class="st1" d="M26.6,58.9h2.9v10.6h-2.9v-3.4h-3.7v3.4H20V58.9h2.9v4.9h3.7V58.9z"/>
<path class="st1" d="M40,69.5h-3.1l-1.5-2.4h-1v2.4h-2.9V58.9h4c2.9,0,4.5,1.8,4.5,4.2c0.1,1.4-0.7,2.8-1.9,3.5L40,69.5z M35.4,64.8  c1,0,1.8-0.8,1.8-1.8c0-1-0.8-1.8-1.8-1.8l0,0h-1v3.5H35.4z"/>
<path class="st1" d="M44.1,61.2h-2.8v-2.4h8.5v2.4H47v8.3h-2.9V61.2z"/>
<path class="st1" d="M51.6,58.9h7.5v2.4h-4.6v2.5h3.9V66h-3.9v1.1h4.9v2.4h-7.7V58.9z"/>
<path class="st1" d="M64.2,64.2v5.3h-2.7V58.7c0-0.1,0-0.2,0.2,0l6.7,5.5v-5.3h2.7v10.8c0,0.1,0,0.2-0.2,0L64.2,64.2z"/>
<path class="st1" d="M73.7,68.1c0-0.9,0.7-1.6,1.5-1.6c0.9,0,1.6,0.7,1.6,1.5s-0.7,1.6-1.5,1.6c0,0,0,0,0,0  C74.4,69.7,73.7,69,73.7,68.1C73.7,68.2,73.7,68.2,73.7,68.1z"/>
<path class="st1" d="M79.4,58.9h4.1c3-0.1,5.4,2.2,5.6,5.1c0.1,3-2.2,5.4-5.1,5.6c-0.2,0-0.3,0-0.5,0h-4.1V58.9z M83.3,67.1  c1.6-0.1,2.8-1.5,2.8-3.1c-0.1-1.5-1.3-2.7-2.8-2.8h-1v5.8H83.3z"/>
<path class="st1" d="M91.4,58.9h7.5v2.4h-4.6v2.5h3.9V66h-3.9v1.1h4.8v2.4h-7.7V58.9z"/>
</svg>
