<?xml version="1.0" encoding="UTF-8"?>
<!DOCTYPE svg PUBLIC "-//W3C//DTD SVG 1.1//EN" "http://www.w3.org/Graphics/SVG/1.1/DTD/svg11.dtd">
<!-- Creator: CorelDRAW 2020 (64-Bit) -->
<svg xmlns="http://www.w3.org/2000/svg" xml:space="preserve" width="631px" height="200px" version="1.1" style="shape-rendering:geometricPrecision; text-rendering:geometricPrecision; image-rendering:optimizeQuality; fill-rule:evenodd; clip-rule:evenodd"
viewBox="0 0 2355.59 746.87"
 xmlns:xlink="http://www.w3.org/1999/xlink"
 xmlns:xodm="http://www.corel.com/coreldraw/odm/2003">
 <defs>
  <style type="text/css">
   <![CDATA[
    .fil1 {fill:black;fill-rule:nonzero}
    .fil0 {fill:url(#id0)}
   ]]>
  </style>
  <linearGradient id="id0" gradientUnits="userSpaceOnUse" x1="148.43" y1="-9" x2="360.2" y2="622.79">
   <stop offset="0" style="stop-opacity:1; stop-color:#8FD400"/>
   <stop offset="0.768627" style="stop-opacity:1; stop-color:#7DB200"/>
   <stop offset="1" style="stop-opacity:1; stop-color:#6B8F00"/>
  </linearGradient>
 </defs>
 <g id="Ebene_x0020_1">
  <metadata id="CorelCorpID_0Corel-Layer"/>
  <path class="fil0" d="M154.69 13.56l453.71 253.01 -119.98 0 0 232.64 60.88 0 0 -73.92 84.8 0 0 -52.18 -84.8 0 0 -54.36 97.84 0 0 -30.58 5.15 2.87c33.95,18.94 53.5,52.37 53.35,91.24 -0.14,38.88 -19.95,72.16 -54.04,90.83l-475.7 260.58c-32.49,17.8 -68.91,17.56 -101.16,-0.67 -32.25,-18.23 -51.24,-49.31 -52.75,-86.32l-6 -147.48 54.19 0 4.35 -100.02 63.05 67.4c0,0 2.18,0 2.18,0l56.53 -67.4 6.52 100.02 56.53 0 -13.04 -234.83c0,-2.17 0,-2.17 -2.18,0l-108.71 126.11 -110.89 -126.11c0,-2.17 -2.17,-2.17 -2.17,0l-9.19 165.3 -13.07 -321.06c-1.57,-38.63 16.51,-72.57 49.44,-92.83 32.94,-20.25 71.39,-21.07 105.16,-2.24zm249.58 253.01l67.4 0 -76.1 100.01 86.97 132.63 -73.92 0 -56.53 -84.79c0,0 -13.05,15.22 -19.57,23.91l0 60.88 -60.88 0 0 -232.64 63.05 0 0 95.66 69.58 -95.66z"/>
  <path class="fil1" d="M387.22 743.66l25.1 0 2.26 -41.03 24.95 27.92c0.43,0.42 0.85,0.42 1.27,0l23.97 -27.78 2.26 40.89 25.24 0 -5.64 -96.87c-0.14,-0.98 -0.71,-0.84 -1.27,-0.14l-45.26 51.61 -45.97 -51.61c-0.56,-0.7 -1.13,-0.84 -1.27,0.14l-5.64 96.87z"/>
  <polygon id="1" class="fil1" points="506.37,743.66 575.6,743.66 575.6,722.06 532.03,722.06 532.03,712.03 566.72,712.03 566.72,691.56 532.03,691.56 532.03,669.24 573.63,669.24 573.63,647.64 506.37,647.64 "/>
  <path id="2" class="fil1" d="M588.01 743.66l37.08 0c27.64,0 48.5,-18.21 48.5,-48.01 0,-29.8 -20.86,-48.01 -48.5,-48.01l-37.08 0 0 96.02zm25.66 -21.74l0 -52.54 8.6 0c15.51,0 25.1,10.31 25.1,26.27 0,15.96 -9.59,26.27 -25.1,26.27l-8.6 0z"/>
  <polygon id="3" class="fil1" points="685.58,743.66 711.24,743.66 711.24,647.78 685.58,647.78 "/>
  <polygon id="4" class="fil1" points="728.44,743.66 797.68,743.66 797.68,722.06 754.11,722.06 754.11,712.03 788.79,712.03 788.79,691.56 754.11,691.56 754.11,669.24 795.7,669.24 795.7,647.64 728.44,647.64 "/>
  <path id="5" class="fil1" d="M894.4 745.35c1.55,1.27 1.98,0.85 1.98,-0.28l0 -97.29 -24.12 0 0 48.08 -60.2 -49.63c-1.55,-1.27 -1.98,-0.57 -1.98,0.28l0 97.15 24.11 0 0 -47.8 60.21 49.49z"/>
  <path id="6" class="fil1" d="M938.68 687.45l0 -39.81 -25.67 0 0 96.02 25.67 0 0 -24.98c2.67,-3.24 8.17,-9.89 8.03,-9.89l22.84 34.87 30.32 0 -35.67 -54.36 31.86 -41.66 -27.77 0 -29.61 39.81z"/>
  <polygon id="7" class="fil1" points="1009.18,743.66 1075.59,743.66 1075.59,722.09 1034.84,722.09 1034.84,647.78 1009.18,647.78 "/>
  <path id="8" class="fil1" d="M1109.71 735.48c0,0 36.24,0 36.09,0l3.67 8.18 26.51 0 -46.53 -97.57c-0.42,-0.99 -1.27,-0.99 -1.69,0l-46.67 97.57 25.09 0 3.53 -8.18zm27.63 -19.17l-19.45 0 9.58 -22.28 9.87 22.28z"/>
  <path id="9" class="fil1" d="M1216.87 745.07c25.38,0 36.38,-12.69 36.38,-30.32 0,-13.53 -6.49,-22.7 -25.67,-29.04l-12.69 -4.23c-4.65,-1.55 -6.76,-3.39 -6.76,-7.05 0,-3.81 3.1,-6.63 9.3,-6.63 7.62,0 11.85,2.82 15.79,6.91l14.67 -15.37c-5.64,-6.63 -14.95,-12.69 -31.87,-12.69 -17.06,0 -32.71,9.73 -32.71,28.63 0,15.79 9.87,24.25 23.83,28.9l11.28 3.81c6.34,2.11 9.45,4.09 9.45,8.18 0,5.35 -4.52,7.61 -12.13,7.61 -9.59,0 -15.37,-4.65 -20.02,-10.43l-18.61 13.95c5.92,7.9 18.19,17.77 39.76,17.77z"/>
  <path id="10" class="fil1" d="M1296.96 745.07c25.38,0 36.38,-12.69 36.38,-30.32 0,-13.53 -6.49,-22.7 -25.67,-29.04l-12.69 -4.23c-4.65,-1.55 -6.76,-3.39 -6.76,-7.05 0,-3.81 3.1,-6.63 9.3,-6.63 7.61,0 11.84,2.82 15.79,6.91l14.67 -15.37c-5.64,-6.63 -14.95,-12.69 -31.87,-12.69 -17.06,0 -32.71,9.73 -32.71,28.63 0,15.79 9.87,24.25 23.83,28.9l11.28 3.81c6.34,2.11 9.45,4.09 9.45,8.18 0,5.35 -4.52,7.61 -12.13,7.61 -9.59,0 -15.37,-4.65 -20.02,-10.43l-18.62 13.95c5.93,7.9 18.19,17.77 39.77,17.77z"/>
  <polygon id="11" class="fil1" points="1345.04,743.66 1414.27,743.66 1414.27,722.06 1370.7,722.06 1370.7,712.03 1405.39,712.03 1405.39,691.56 1370.7,691.56 1370.7,669.24 1412.3,669.24 1412.3,647.64 1345.04,647.64 "/>
  <path id="12" class="fil1" d="M1511 745.35c1.55,1.27 1.97,0.85 1.97,-0.28l0 -97.29 -24.11 0 0 48.08 -60.21 -49.63c-1.55,-1.27 -1.97,-0.57 -1.97,0.28l0 97.15 24.11 0 0 -47.8 60.21 49.49z"/>
  <polygon id="13" class="fil1" points="1529.61,743.66 1555.27,743.66 1555.27,713.2 1590.1,713.2 1590.1,691.63 1555.27,691.63 1555.27,669.35 1594.75,669.35 1594.75,647.78 1529.61,647.78 "/>
  <path id="14" class="fil1" d="M1618.44 735.48c0,0 36.23,0 36.09,0l3.67 8.18 26.51 0 -46.53 -97.57c-0.43,-0.99 -1.27,-0.99 -1.69,0l-46.68 97.57 25.1 0 3.53 -8.18zm27.63 -19.17l-19.45 0 9.58 -22.28 9.87 22.28z"/>
  <polygon id="15" class="fil1" points="1752.53,691.63 1719.25,691.63 1719.25,647.78 1693.59,647.78 1693.59,743.66 1719.25,743.66 1719.25,713.2 1752.53,713.2 1752.53,743.66 1778.19,743.66 1778.19,647.78 1752.53,647.78 "/>
  <path id="16" class="fil1" d="M1854.19 716.45c11.28,-6.21 17.34,-17.21 17.34,-31.02 0,-21.29 -14.52,-37.65 -40.32,-37.65l-36.38 0 0 95.88 25.66 0 0 -22 9.59 0 13.39 22 27.78 0 -17.06 -27.21zm-33.7 -15.23l0 -31.73 9.45 0c11.56,0 15.79,6.63 15.79,15.94 0,9.3 -4.23,15.79 -15.79,15.79l-9.45 0z"/>
  <polygon id="17" class="fil1" points="1903.82,743.66 1929.48,743.66 1929.48,669.35 1954.86,669.35 1954.86,647.78 1878.44,647.78 1878.44,669.35 1903.82,669.35 "/>
  <polygon id="18" class="fil1" points="1966.43,743.66 2035.66,743.66 2035.66,722.06 1992.09,722.06 1992.09,712.03 2026.77,712.03 2026.77,691.56 1992.09,691.56 1992.09,669.24 2033.68,669.24 2033.68,647.64 1966.43,647.64 "/>
  <path id="19" class="fil1" d="M2132.38 745.35c1.55,1.27 1.98,0.85 1.98,-0.28l0 -97.29 -24.11 0 0 48.08 -60.21 -49.63c-1.55,-1.27 -1.97,-0.57 -1.97,0.28l0 97.15 24.11 0 0 -47.8 60.2 49.49z"/>
  <path id="20" class="fil1" d="M2161.85 745.07c7.33,0 14.1,-5.64 14.1,-13.82 0,-8.18 -6.77,-13.82 -14.1,-13.82 -7.47,0 -14.1,5.64 -14.1,13.82 0,8.18 6.63,13.82 14.1,13.82z"/>
  <path id="21" class="fil1" d="M2189.35 743.66l37.08 0c27.64,0 48.5,-18.21 48.5,-48.01 0,-29.8 -20.86,-48.01 -48.5,-48.01l-37.08 0 0 96.02zm25.66 -21.74l0 -52.54 8.6 0c15.51,0 25.1,10.31 25.1,26.27 0,15.96 -9.59,26.27 -25.1,26.27l-8.6 0z"/>
  <polygon id="22" class="fil1" points="2286.36,743.66 2355.59,743.66 2355.59,722.06 2312.02,722.06 2312.02,712.03 2346.7,712.03 2346.7,691.56 2312.02,691.56 2312.02,669.24 2353.61,669.24 2353.61,647.64 2286.36,647.64 "/>
 </g>
</svg>
